{
  "project_info": {
    "project_number": "767247251591",
    "firebase_url": "https://photomanager-m2pgi.firebaseio.com",
    "project_id": "photomanager-m2pgi",
    "storage_bucket": "photomanager-m2pgi.appspot.com"
  },
  "client": [
    {
      "client_info": {
        "mobilesdk_app_id": "1:767247251591:android:618f8fbf7f1ed647",
        "android_client_info": {
          "package_name": "com.m2pgi.photomanager"
        }
      },
      "oauth_client": [
        {
          "client_id": "767247251591-rcujjmqnbfcflaqr0ndqod95vbd3ghdp.apps.googleusercontent.com",
          "client_type": 1,
          "android_info": {
            "package_name": "com.m2pgi.photomanager",
            "certificate_hash": "bad2a8bb544863cf08db49877ddf8fc6fec7db37"
          }
        },
        {
          "client_id": "767247251591-5hptlkgc3cujc4b7aos12gla7af4jqce.apps.googleusercontent.com",
          "client_type": 3
        }
      ],
      "api_key": [
        {
          "current_key": "AIzaSyD-1uXfuRI5OKYQDImxfpYLB48dZoYuVRs"
        }
      ],
      "services": {
        "analytics_service": {
          "status": 1
        },
        "appinvite_service": {
          "status": 2,
          "other_platform_oauth_client": [
            {
              "client_id": "767247251591-5hptlkgc3cujc4b7aos12gla7af4jqce.apps.googleusercontent.com",
              "client_type": 3
            }
          ]
        },
        "ads_service": {
          "status": 2
        }
      }
    }
  ],
  "configuration_version": "1"
}